---
source: src/exposes.rs
expression: "&empty_map"
---
{
    StructName {
        rust_name: "tempDU",
        original_name: "temp-_",
        description: None,
    }: {
        "child_lock": TypeField {
            optional: false,
            rust_type: Binary,
            deserialize_function_name: Some(
                "tempdu_child_lock_deserializer",
            ),
            deserialize_function: Some(
                "/// Deserialize bool from String with custom value mapping\nfn tempdu_child_lock_deserializer<'de, D>(deserializer: D) -> Result<bool, D::Error>\nwhere\n    D: Deserializer<'de>,\n{\n    match String::deserialize(deserializer)?.as_ref() {\n        \"LOCK\" => Ok(true),\n        \"UNLOCK\" => Ok(false),\n        other => Err(de::Error::invalid_value(\n            Unexpected::Str(other),\n            &\"Value expected was either LOCK or UNLOCK\",\n        )),\n    }\n}\n",
            ),
            additional_documentation: Some(
                "Zigbee herdsman description: \"Enables/disables physical input on the device\"\nThe string values get converted into boolean with: LOCK = true and UNLOCK = false",
            ),
        },
        "error": TypeField {
            optional: false,
            rust_type: Binary,
            deserialize_function_name: None,
            deserialize_function: None,
            additional_documentation: Some(
                "Zigbee herdsman description: \"Indicates wether there is an error with the feeder\"\nBoolean values can be an unintuitive way round: value_on = true and value_off = false, consider double checking Zigbee2MQTT to understand what they mean",
            ),
        },
        "feed": TypeField {
            optional: false,
            rust_type: Enum(
                "tempDUFeed",
            ),
            deserialize_function_name: None,
            deserialize_function: None,
            additional_documentation: Some(
                "Start feeding",
            ),
        },
        "feeding_size": TypeField {
            optional: false,
            rust_type: F64,
            deserialize_function_name: None,
            deserialize_function: None,
            additional_documentation: Some(
                "Feeding size",
            ),
        },
        "feeding_source": TypeField {
            optional: false,
            rust_type: Enum(
                "tempDUFeedingsource",
            ),
            deserialize_function_name: None,
            deserialize_function: None,
            additional_documentation: Some(
                "Feeding source",
            ),
        },
        "led_indicator": TypeField {
            optional: false,
            rust_type: Binary,
            deserialize_function_name: Some(
                "tempdu_led_indicator_deserializer",
            ),
            deserialize_function: Some(
                "/// Deserialize bool from String with custom value mapping\nfn tempdu_led_indicator_deserializer<'de, D>(deserializer: D) -> Result<bool, D::Error>\nwhere\n    D: Deserializer<'de>,\n{\n    match String::deserialize(deserializer)?.as_ref() {\n        \"ON\" => Ok(true),\n        \"OFF\" => Ok(false),\n        other => Err(de::Error::invalid_value(\n            Unexpected::Str(other),\n            &\"Value expected was either ON or OFF\",\n        )),\n    }\n}\n",
            ),
            additional_documentation: Some(
                "Zigbee herdsman description: \"Led indicator\"\nThe string values get converted into boolean with: ON = true and OFF = false",
            ),
        },
        "linkquality": TypeField {
            optional: false,
            rust_type: F64,
            deserialize_function_name: None,
            deserialize_function: None,
            additional_documentation: Some(
                "Link quality (signal strength)",
            ),
        },
        "mode": TypeField {
            optional: false,
            rust_type: Enum(
                "tempDUMode",
            ),
            deserialize_function_name: None,
            deserialize_function: None,
            additional_documentation: Some(
                "Feeding mode",
            ),
        },
        "portion_weight": TypeField {
            optional: false,
            rust_type: F64,
            deserialize_function_name: None,
            deserialize_function: None,
            additional_documentation: Some(
                "Portion weight",
            ),
        },
        "portions_per_day": TypeField {
            optional: false,
            rust_type: F64,
            deserialize_function_name: None,
            deserialize_function: None,
            additional_documentation: Some(
                "Portions per day",
            ),
        },
        "serving_size": TypeField {
            optional: false,
            rust_type: F64,
            deserialize_function_name: None,
            deserialize_function: None,
            additional_documentation: Some(
                "One serving size",
            ),
        },
        "weight_per_day": TypeField {
            optional: false,
            rust_type: F64,
            deserialize_function_name: None,
            deserialize_function: None,
            additional_documentation: Some(
                "Weight per day",
            ),
        },
    },
}
