---
source: src/exposes.rs
expression: "&empty_map"
---
{
    StructName {
        rust_name: "tempDU",
        original_name: "temp-_",
        description: None,
    }: {
        "brightness": TypeField {
            optional: false,
            rust_type: F64,
            deserialize_function_name: None,
            deserialize_function: None,
            additional_documentation: Some(
                "Brightness of this light",
            ),
        },
        "color_temp": TypeField {
            optional: false,
            rust_type: F64,
            deserialize_function_name: None,
            deserialize_function: None,
            additional_documentation: Some(
                "Color temperature of this light",
            ),
        },
        "color_temp_startup": TypeField {
            optional: false,
            rust_type: F64,
            deserialize_function_name: None,
            deserialize_function: None,
            additional_documentation: Some(
                "Color temperature after cold power on of this light",
            ),
        },
        "linkquality": TypeField {
            optional: false,
            rust_type: F64,
            deserialize_function_name: None,
            deserialize_function: None,
            additional_documentation: Some(
                "Link quality (signal strength)",
            ),
        },
        "state": TypeField {
            optional: false,
            rust_type: Binary,
            deserialize_function_name: Some(
                "tempdu_state_deserializer",
            ),
            deserialize_function: Some(
                "/// Deserialize bool from String with custom value mapping\nfn tempdu_state_deserializer<'de, D>(deserializer: D) -> Result<bool, D::Error>\nwhere\n    D: Deserializer<'de>,\n{\n    match String::deserialize(deserializer)?.as_ref() {\n        \"ON\" => Ok(true),\n        \"OFF\" => Ok(false),\n        other => Err(de::Error::invalid_value(\n            Unexpected::Str(other),\n            &\"Value expected was either ON or OFF\",\n        )),\n    }\n}\n",
            ),
            additional_documentation: Some(
                "Zigbee herdsman description: \"On/off state of this light\"\nThe string values get converted into boolean with: ON = true and OFF = false",
            ),
        },
    },
}
